{
  "formatVersion": 1,
  "database": {
    "version": 1,
    "identityHash": "2612f81a8425c03f6d400e412507478e",
    "entities": [
      {
        "tableName": "resources",
        "createSql": "CREATE TABLE IF NOT EXISTS `${TABLE_NAME}` (`id` TEXT NOT NULL, `name` TEXT NOT NULL, `x` REAL NOT NULL, `y` REAL NOT NULL, `scheduledArrival` REAL NOT NULL, `locationType` INTEGER NOT NULL, `companyZoneId` INTEGER NOT NULL, `lat` REAL NOT NULL, `lon` REAL NOT NULL, PRIMARY KEY(`id`))",
        "fields": [
          {
            "fieldPath": "id",
            "columnName": "id",
            "affinity": "TEXT",
            "notNull": true
          },
          {
            "fieldPath": "name",
            "columnName": "name",
            "affinity": "TEXT",
            "notNull": true
          },
          {
            "fieldPath": "x",
            "columnName": "x",
            "affinity": "REAL",
            "notNull": true
          },
          {
            "fieldPath": "y",
            "columnName": "y",
            "affinity": "REAL",
            "notNull": true
          },
          {
            "fieldPath": "scheduledArrival",
            "columnName": "scheduledArrival",
            "affinity": "REAL",
            "notNull": true
          },
          {
            "fieldPath": "locationType",
            "columnName": "locationType",
            "affinity": "INTEGER",
            "notNull": true
          },
          {
            "fieldPath": "companyZoneId",
            "columnName": "companyZoneId",
            "affinity": "INTEGER",
            "notNull": true
          },
          {
            "fieldPath": "lat",
            "columnName": "lat",
            "affinity": "REAL",
            "notNull": true
          },
          {
            "fieldPath": "lon",
            "columnName": "lon",
            "affinity": "REAL",
            "notNull": true
          }
        ],
        "primaryKey": {
          "columnNames": [
            "id"
          ],
          "autoGenerate": false
        },
        "indices": [],
        "foreignKeys": []
      }
    ],
    "views": [],
    "setupQueries": [
      "CREATE TABLE IF NOT EXISTS room_master_table (id INTEGER PRIMARY KEY,identity_hash TEXT)",
      "INSERT OR REPLACE INTO room_master_table (id,identity_hash) VALUES(42, '2612f81a8425c03f6d400e412507478e')"
    ]
  }
}